\relax 
\providecommand\hyper@newdestlabel[2]{}
\providecommand\HyperFirstAtBeginDocument{\AtBeginDocument}
\HyperFirstAtBeginDocument{\ifx\hyper@anchor\@undefined
\global\let\oldcontentsline\contentsline
\gdef\contentsline#1#2#3#4{\oldcontentsline{#1}{#2}{#3}}
\global\let\oldnewlabel\newlabel
\gdef\newlabel#1#2{\newlabelxx{#1}#2}
\gdef\newlabelxx#1#2#3#4#5#6{\oldnewlabel{#1}{{#2}{#3}}}
\AtEndDocument{\ifx\hyper@anchor\@undefined
\let\contentsline\oldcontentsline
\let\newlabel\oldnewlabel
\fi}
\fi}
\global\let\hyper@last\relax 
\gdef\HyperFirstAtBeginDocument#1{#1}
\providecommand\HyField@AuxAddToFields[1]{}
\providecommand\HyField@AuxAddToCoFields[2]{}
\select@language{romanian}
\@writefile{toc}{\select@language{romanian}}
\@writefile{lof}{\select@language{romanian}}
\@writefile{lot}{\select@language{romanian}}
\@writefile{toc}{\contentsline {chapter}{\numberline {1}Introducere}{4}{chapter.1}}
\@writefile{lof}{\addvspace {10\p@ }}
\@writefile{lot}{\addvspace {10\p@ }}
\@writefile{toc}{\contentsline {section}{\numberline {1.1}Descriere general\IeC {\u a} a problemei alese}{4}{section.1.1}}
\@writefile{lof}{\contentsline {figure}{\numberline {1.1}{\ignorespaces Structura unui arbore binar de c\IeC {\u a}utare.}}{4}{figure.1.1}}
\@writefile{lof}{\contentsline {figure}{\numberline {1.2}{\ignorespaces Exemplu de arbore binar de c\IeC {\u a}utare.}}{5}{figure.1.2}}
\@writefile{toc}{\contentsline {section}{\numberline {1.2}Motivare}{5}{section.1.2}}
\@writefile{toc}{\contentsline {section}{\numberline {1.3}Obiective}{5}{section.1.3}}
\@writefile{toc}{\contentsline {chapter}{\numberline {2}Studiul actual \IeC {\^\i }n domeniul studiat}{7}{chapter.2}}
\@writefile{lof}{\addvspace {10\p@ }}
\@writefile{lot}{\addvspace {10\p@ }}
\@writefile{lof}{\contentsline {figure}{\numberline {2.1}{\ignorespaces Interfa\IeC {\textcommabelow t}a aplica\IeC {\textcommabelow t}iei Gnarley Trees.}}{8}{figure.2.1}}
\@writefile{lof}{\contentsline {figure}{\numberline {2.2}{\ignorespaces Interfa\IeC {\textcommabelow t}a aplica\IeC {\textcommabelow t}iei Algorithm Visualization.}}{11}{figure.2.2}}
\@writefile{toc}{\contentsline {chapter}{\numberline {3}Tehnologiile folosite, termenii, metodele \IeC {\textcommabelow s}i modelele folosite}{12}{chapter.3}}
\@writefile{lof}{\addvspace {10\p@ }}
\@writefile{lot}{\addvspace {10\p@ }}
\@writefile{toc}{\contentsline {section}{\numberline {3.1}Tehnologii}{12}{section.3.1}}
\@writefile{toc}{\contentsline {section}{\numberline {3.2}Termenii, metodele, \IeC {\textcommabelow s}i modelele folosite}{13}{section.3.2}}
\@writefile{lof}{\contentsline {figure}{\numberline {3.1}{\ignorespaces Structura proiectului.}}{13}{figure.3.1}}
\@writefile{lof}{\contentsline {figure}{\numberline {3.2}{\ignorespaces Diagrama clasei Node.}}{13}{figure.3.2}}
\@writefile{lof}{\contentsline {figure}{\numberline {3.3}{\ignorespaces Diagrama clasei DrawNode.}}{14}{figure.3.3}}
\@writefile{lof}{\contentsline {figure}{\numberline {3.4}{\ignorespaces Diagrama clasei DrawEdge.}}{15}{figure.3.4}}
\@writefile{lof}{\contentsline {figure}{\numberline {3.5}{\ignorespaces Diagrama clasei Draw.}}{15}{figure.3.5}}
\@writefile{lof}{\contentsline {figure}{\numberline {3.6}{\ignorespaces Diagrama clasei Console.}}{16}{figure.3.6}}
\@writefile{lof}{\contentsline {figure}{\numberline {3.7}{\ignorespaces Variabilele clasei Bst.}}{17}{figure.3.7}}
\@writefile{lof}{\contentsline {figure}{\numberline {3.8}{\ignorespaces Metodele clasei Bst.}}{17}{figure.3.8}}
\@writefile{toc}{\contentsline {chapter}{\numberline {4}Descrierea aplica\IeC {\textcommabelow t}iei}{19}{chapter.4}}
\@writefile{lof}{\addvspace {10\p@ }}
\@writefile{lot}{\addvspace {10\p@ }}
\@writefile{toc}{\contentsline {section}{\numberline {4.1}Exemple de utilizare}{20}{section.4.1}}
\@writefile{lof}{\contentsline {figure}{\numberline {4.1}{\ignorespaces Generarea unei valori aleatoare pentru un nod.}}{20}{figure.4.1}}
\@writefile{lof}{\contentsline {figure}{\numberline {4.2}{\ignorespaces Generarea unui arbore aleator.}}{20}{figure.4.2}}
\@writefile{lof}{\contentsline {figure}{\numberline {4.3}{\ignorespaces Ad\IeC {\u a}ugarea nodului 65, s-a capturat momentul \IeC {\^\i }n care a g\IeC {\u a}sit p\IeC {\u a}rintele acestuia.}}{21}{figure.4.3}}
\@writefile{lof}{\contentsline {figure}{\numberline {4.4}{\ignorespaces Arborele dup\IeC {\u a} inserarea nodului 65.}}{21}{figure.4.4}}
\@writefile{lof}{\contentsline {figure}{\numberline {4.5}{\ignorespaces \IeC {\textcommabelow S}tergerea nodului 65, s-a capturat momentul \IeC {\^\i }n care a g\IeC {\u a}sit p\IeC {\u a}rintele acestuia.}}{22}{figure.4.5}}
\@writefile{lof}{\contentsline {figure}{\numberline {4.6}{\ignorespaces Arborele dup\IeC {\u a} \IeC {\textcommabelow s}tergerea nodului 108.}}{22}{figure.4.6}}
\@writefile{lof}{\contentsline {figure}{\numberline {4.7}{\ignorespaces C\IeC {\u a}utarea nodului 268 \IeC {\textcommabelow s}i marcarea acestuia.}}{23}{figure.4.7}}
\@writefile{lof}{\contentsline {figure}{\numberline {4.8}{\ignorespaces Succesorul nodului 514 \IeC {\textcommabelow s}i marcarea acestuia.}}{23}{figure.4.8}}
\@writefile{lof}{\contentsline {figure}{\numberline {4.9}{\ignorespaces Predecesorul nodului 411 \IeC {\textcommabelow s}i marcarea acestuia.}}{24}{figure.4.9}}
\@writefile{lof}{\contentsline {figure}{\numberline {4.10}{\ignorespaces Valoarea minim\IeC {\u a} din arbore.}}{24}{figure.4.10}}
\@writefile{lof}{\contentsline {figure}{\numberline {4.11}{\ignorespaces Valoarea maxim\IeC {\u a} din arbore.}}{25}{figure.4.11}}
\@writefile{lof}{\contentsline {figure}{\numberline {4.12}{\ignorespaces Afi\IeC {\textcommabelow s}area inordine, preordine \IeC {\textcommabelow s}i postordine a nodurilor din arbore.}}{25}{figure.4.12}}
\@writefile{lof}{\contentsline {figure}{\numberline {4.13}{\ignorespaces \IeC {\textcommabelow S}tergerea consolei \IeC {\textcommabelow s}i a zonei de desenat.}}{26}{figure.4.13}}
\@writefile{toc}{\contentsline {chapter}{\numberline {5}Concluzii \IeC {\textcommabelow s}i direc\IeC {\textcommabelow t}ii viitoare}{27}{chapter.5}}
\@writefile{lof}{\addvspace {10\p@ }}
\@writefile{lot}{\addvspace {10\p@ }}
\@writefile{toc}{\contentsline {paragraph}{Contribu\IeC {\c t}ii personale}{27}{section*.3}}
\@writefile{toc}{\contentsline {paragraph}{Direc\IeC {\textcommabelow t}ii viitoare}{27}{section*.4}}
